^C:\USERS\CSNK2\SOURCE\REPOS\MINIMOL\BENCHMARK\SPLINEBENCH.CPP
/c /IC:\Users\csnk2\Source\Repos\minimol\benchmark\Benchmark\packages\Eigen.3.2.7\build\native\../..//build/native/include/ /IC:\Users\csnk2\Source\Repos\minimol\benchmark\Benchmark\packages\glm.0.9.7.1\build\native\../..//build/native/include/ /IC:\Users\csnk2\Source\Repos\minimol\benchmark\Benchmark\packages\nupengl.core.0.1.0.1\build\native\../..//build/native/include/ /ZI /nologo /W3 /WX- /Od /Oy- /D HAS_EIGEN /D WIN32 /D _DEBUG /D _CONSOLE /D _LIB /D _UNICODE /D UNICODE /Gm /EHsc /RTC1 /MDd /GS /fp:precise /Zc:wchar_t /Zc:forScope /Fo"DEBUG\\" /Fd"DEBUG\VC120.PDB" /Gd /TP /analyze- C:\USERS\CSNK2\SOURCE\REPOS\MINIMOL\BENCHMARK\SPLINEBENCH.CPP
^C:\USERS\CSNK2\SOURCE\REPOS\MINIMOL\BENCHMARK\SPLINECALCULATION.CPP
/c /IC:\Users\csnk2\Source\Repos\minimol\benchmark\Benchmark\packages\Eigen.3.2.7\build\native\../..//build/native/include/ /IC:\Users\csnk2\Source\Repos\minimol\benchmark\Benchmark\packages\glm.0.9.7.1\build\native\../..//build/native/include/ /IC:\Users\csnk2\Source\Repos\minimol\benchmark\Benchmark\packages\nupengl.core.0.1.0.1\build\native\../..//build/native/include/ /ZI /nologo /W3 /WX- /Od /Oy- /D HAS_EIGEN /D WIN32 /D _DEBUG /D _CONSOLE /D _LIB /D _UNICODE /D UNICODE /Gm /EHsc /RTC1 /MDd /GS /fp:precise /Zc:wchar_t /Zc:forScope /Fo"DEBUG\\" /Fd"DEBUG\VC120.PDB" /Gd /TP /analyze- C:\USERS\CSNK2\SOURCE\REPOS\MINIMOL\BENCHMARK\SPLINECALCULATION.CPP
^C:\USERS\TIM\DESKTOP\MINIMOL\BENCHMARK\SPLINEBENCH.CPP
/c /IC:\Users\tim\Desktop\minimol\benchmark\Benchmark\packages\Eigen.3.2.7\build\native\../..//build/native/include/ /IC:\Users\tim\Desktop\minimol\benchmark\Benchmark\packages\glm.0.9.7.1\build\native\../..//build/native/include/ /IC:\Users\tim\Desktop\minimol\benchmark\Benchmark\packages\nupengl.core.0.1.0.1\build\native\../..//build/native/include/ /ZI /nologo /W3 /WX- /Od /Oy- /D HAS_EIGEN /D WIN32 /D _DEBUG /D _CONSOLE /D _LIB /D _UNICODE /D UNICODE /D SPLINE_WITH_BENCHMARK /Gm /EHsc /RTC1 /MDd /GS /fp:precise /Zc:wchar_t /Zc:forScope /Fo"DEBUG\\" /Fd"DEBUG\VC120.PDB" /Gd /TP /analyze- C:\USERS\TIM\DESKTOP\MINIMOL\BENCHMARK\SPLINEBENCH.CPP
^C:\USERS\TIM\DESKTOP\MINIMOL\BENCHMARK\SPLINECALCULATION.CPP
/c /IC:\Users\tim\Desktop\minimol\benchmark\Benchmark\packages\Eigen.3.2.7\build\native\../..//build/native/include/ /IC:\Users\tim\Desktop\minimol\benchmark\Benchmark\packages\glm.0.9.7.1\build\native\../..//build/native/include/ /IC:\Users\tim\Desktop\minimol\benchmark\Benchmark\packages\nupengl.core.0.1.0.1\build\native\../..//build/native/include/ /ZI /nologo /W3 /WX- /Od /Oy- /D HAS_EIGEN /D WIN32 /D _DEBUG /D _CONSOLE /D _LIB /D _UNICODE /D UNICODE /D SPLINE_WITH_BENCHMARK /Gm /EHsc /RTC1 /MDd /GS /fp:precise /Zc:wchar_t /Zc:forScope /Fo"DEBUG\\" /Fd"DEBUG\VC120.PDB" /Gd /TP /analyze- C:\USERS\TIM\DESKTOP\MINIMOL\BENCHMARK\SPLINECALCULATION.CPP
